[
  {
    "title": "Free Consultation",
    "description": "New clients recieve an obligation free consultation.",
    "image": "about/hoos.jpg"
  },
  {
    "title": "Certified Accountants",
    "description": "All members of our team are certified accountants.",
    "image": "features/noun_The Process_1885341.svg"
  },
  {
    "title": "Tax Compliance",
    "description": "We stay up to date on the latest changes to the tax code.",
    "image": "features/noun_3d modeling_1885342.svg"
  },
  {
    "title": "Tax Compliance",
    "description": "We stay up to date on the latest changes to the tax code.",
    "image": "features/noun_3d modeling_1885342.svg"
  }
]
